ISSS608 - Project EDA
…
# Calculate the average PM2.5 for each area for each year
annual_avg_pm25 <- pollutants_yr %>%
  group_by(Area, year) %>%
  summarise(annual_avg_pm25 = mean(pm25, na.rm = TRUE))

`summarise()` has grouped output by 'Area'. You can override using the
`.groups` argument.

print(annual_avg_pm25)

# A tibble: 60 × 3
# Groups:   Area [5]
   Area    year  annual_avg_pm25
   <chr>   <fct>           <dbl>
 1 Central 2013            NaN  
 2 Central 2014             60.1
 3 Central 2015             63.8
 4 Central 2016             51.5
 5 Central 2017             47.2
 6 Central 2018             54.1
 7 Central 2019             56.2
 8 Central 2020             43.4
 9 Central 2021             49.3
10 Central 2022             43.2
# ℹ 50 more rows
…
